module git.app.strabag.com/dev/hostingci/gomodules/hcichameleon.git

go 1.16

require (
	github.com/alecthomas/template v0.0.0-20190718012654-fb15b899a751 // indirect
	github.com/alecthomas/units v0.0.0-20210208195552-ff826a37aa15 // indirect
	gopkg.in/alecthomas/kingpin.v2 v2.2.6
)
